%YAML 1.1
%TAG !u! tag:unity3d.com,2011:
--- !u!1045 &1
EditorBuildSettings:
  m_ObjectHideFlags: 0
  serializedVersion: 2
  m_Scenes:
  - enabled: 1
    path: Assets/Scenes/elephant_scene.unity
    guid: 47a686e3b898646ae802a7832a649176
  - enabled: 1
    path: Assets/Scenes/Splash.unity
    guid: 205646a56991d0c4eaefb7cf9198105c
  - enabled: 1
    path: Assets/Scenes/Main.unity
    guid: 9fc0d4010bbf28b4594072e72b8655ab
  m_configObjects: {}
